{
    "rados" : {
        "host" : "localhost",
        "port" : "10080",
        "bucket" : "s3",
        "access_key" : "x",
        "secret_key" : "y",
        "is_secure" : false
    },
    "s3" : {
        "host" : "localhost",
        "port" : "10080",
        "bucket" : "bruces_bucket",
        "access_key" : "x",
        "secret_key" : "y",
        "is_secure" : false
    }
}
